…
```r
# DEM 파일 raster / 고도 데이터 추출
dem_37705 <- terra::rast("/Users/admin/Downloads/37705.img") |>
  elevatr::get_elev_raster(z = 11, clip = "bbox")

 # xyz 데이터 셋 만들기
df_dem_37705 <- dem_37705 |>
  st_as_stars() |>
  as_tibble() |>
  select(x, y, z = 3)

df_dem_37705

# A tibble: 712,152 × 3
#         x        y     z
#     <dbl>    <dbl> <dbl>
# 1 955611. 1972288.    NA
# 2 955641. 1972288.    NA
# 3 955672. 1972288.    NA
# 4 955702. 1972288.    NA
# 5 955732. 1972288.    NA
# 6 955762. 1972288.   322
# 7 955792. 1972288.   321
# 8 955823. 1972288.   319
# 9 955853. 1972288.   315
#10 955883. 1972288.   308
# ℹ 712,142 more rows
# ℹ Use `print(n = ...)` to see more rows
```
…
